Gov 50 Final Project
…
MLB_1920 %>% 
  group_by(Year) %>% 
  summarize(`Home Team Win %` = (mean(Home_team_win) * 100))

# A tibble: 2 × 2
   Year `Home Team Win %`
  <dbl>             <dbl>
1    19              52.9
2    20              55.0

MLB_19

# A tibble: 2,429 × 15
   Date       Visiting_team Visiting_team_league Home_team
   <date>     <chr>         <chr>                <chr>    
 1 0019-03-20 SEA           AL                   OAK      
 2 0019-03-21 SEA           AL                   OAK      
 3 0019-03-28 PIT           NL                   CIN      
 4 0019-03-28 ARI           NL                   LAN      
 5 0019-03-28 COL           NL                   MIA      
 6 0019-03-28 SLN           NL                   MIL      
 7 0019-03-28 ATL           NL                   PHI      
 8 0019-03-28 SFN           NL                   SDN      
 9 0019-03-28 NYN           NL                   WAS      
10 0019-03-28 CHA           AL                   KCA      
# ℹ 2,419 more rows
# ℹ 11 more variables: Home_team_league <chr>,
#   Visiting_team_score <dbl>, Home_team_score <dbl>,
#   Day_night <chr>, Park_ID <chr>, Attendance <dbl>,
#   Time_of_game_in_minutes <dbl>, Visiting_line_scores <chr>,
#   Home_team_win <dbl>, Year <dbl>, home_win_pct19 <dbl>

MLB_20

# A tibble: 898 × 15
   Date       Visiting_team Visiting_team_league Home_team
   <date>     <chr>         <chr>                <chr>    
 1 0020-07-23 SFN           NL                   LAN      
 2 0020-07-23 NYA           AL                   WAS      
 3 0020-07-24 MIL           NL                   CHN      
 4 0020-07-24 DET           AL                   CIN      
 5 0020-07-24 SFN           NL                   LAN      
 6 0020-07-24 ATL           NL                   NYN      
 7 0020-07-24 MIA           NL                   PHI      
 8 0020-07-24 ARI           NL                   SDN      
 9 0020-07-24 PIT           NL                   SLN      
10 0020-07-24 BAL           AL                   BOS      
# ℹ 888 more rows
# ℹ 11 more variables: Home_team_league <chr>,
#   Visiting_team_score <dbl>, Home_team_score <dbl>,
#   Day_night <chr>, Park_ID <chr>, Attendance <dbl>,
#   Time_of_game_in_minutes <dbl>, Visiting_line_scores <chr>,
#   Home_team_win <dbl>, Year <dbl>, home_win_pct20 <dbl>
…
